[
  {
    "uuid": "afcbc5e5-0c8c-353e-aa28-0b4983c8ed5f",
    "name": "WIPocket",
    "level": 4,
    "bypassesPlayerLimit": false
  },
  {
    "uuid": "907eb4af-da6e-3dbf-ad99-58126803fb22",
    "name": "smartyfeed",
    "level": 4,
    "bypassesPlayerLimit": false
  }
]
